{
  "$schema": "../../node_modules/nx/schemas/project-schema.json",
  "sourceRoot": "apps/express-app-one/src",
  "projectType": "application",
  "targets": {
    "build": {
      "executor": "@nrwl/node:webpack",
      "outputs": [
        "{options.outputPath}"
      ],
      "options": {
        "outputPath": "dist/apps/express-app-one",
        "main": "apps/express-app-one/src/main.ts",
        "tsConfig": "apps/express-app-one/tsconfig.app.json",
        "assets": [
          "apps/express-app-one/src/assets"
        ]
      },
      "configurations": {
        "production": {
          "optimization": true,
          "extractLicenses": true,
          "inspect": false,
          "fileReplacements": [
            {
              "replace": "apps/express-app-one/src/environments/environment.ts",
              "with": "apps/express-app-one/src/environments/environment.prod.ts"
            }
          ]
        }
      }
    },
    "serve": {
      "executor": "@nrwl/node:node",
      "options": {
        "buildTarget": "express-app-one:build"
      },
      "configurations": {
        "production": {
          "buildTarget": "express-app-one:build:production"
        }
      }
    },
    "lint": {
      "executor": "@nrwl/linter:eslint",
      "outputs": [
        "{options.outputFile}"
      ],
      "options": {
        "lintFilePatterns": [
          "apps/express-app-one/**/*.ts"
        ]
      }
    },
    "test": {
      "executor": "@nrwl/jest:jest",
      "outputs": [
        "coverage/apps/express-app-one"
      ],
      "options": {
        "jestConfig": "apps/express-app-one/jest.config.ts",
        "passWithNoTests": true
      }
    }
  },
  "tags": []
}
